INDEX VERSION 1.127+C:\All-Workspaces\Javprojects\Valtech\.metadata\.plugins\org.eclipse.jdt.core
3534041157.index
2933105510.index
4043202862.index
3164457182.index
3943770018.index
498826525.index
2110656577.index
1313387660.index
1671476569.index
1660748695.index
1940200714.index
3598427713.index
1765406557.index
3108075164.index
21156131.index
2300227859.index
1308193551.index
551513651.index
890050435.index
548101204.index
555215057.index
3589337008.index
4126924917.index
3938408542.index
3108218274.index
1387397213.index
3252947263.index
2082342759.index
2588114019.index
1775656055.index
495225262.index
893988391.index
4046390759.index
1431450553.index
3631110572.index
253587553.index
1841964203.index
2722940693.index
1651406577.index
2862355144.index
1759806161.index
3679209653.index
3025520465.index
533216065.index
4191173808.index
3488917806.index
2556067640.index
3270208401.index
1505972308.index
1943862065.index
1824875393.index
2955805587.index
1420719090.index
